﻿カラー:0xC5CEE3
名称:キュアノス
性格:13
自称:わらわ
適性:6
外見_前髪:4
外見_髪長:4
外見_髪色:5
外見_肌色:3
外見_目元:5
外見_瞳色:6
外見_口元:1
外見_唇色:2
外見_声質:2
外見_身長:2
外見_体格:3
外見_胸部:1
外見_臀部:3
外見_男秘部:2
外見_女秘部:2
愛撫:5
触手:4
複数:5
挿入:3
被挿:5
玩具:5
拘束:3
拡張:2
加虐:3
強要小排:3
強要大排:2
野外:3
眠姦:5
医療:3
主従:3
机下:3
逆転:5
フェチ:7
