﻿カラー:0xC9DC9C
名称:リーノ
性格:12
自称:お姉ちゃん
適性:5
外見_前髪:3
外見_髪長:3
外見_髪色:2
外見_肌色:2
外見_目元:2
外見_瞳色:2
外見_口元:2
外見_唇色:1
外見_声質:3
外見_身長:1
外見_体格:2
外見_胸部:1
外見_臀部:1
外見_男秘部:3
外見_女秘部:1
愛撫:4
触手:4
複数:4
挿入:5
被挿:0
玩具:5
拘束:5
拡張:5
加虐:2
強要小排:2
強要大排:1
野外:1
眠姦:3
医療:3
主従:3
机下:5
逆転:4
フェチ:6
