﻿カラー:0xB1D6D7
名称:シーニー
性格:7
自称:アタシ
適性:6
外見_前髪:3
外見_髪長:3
外見_髪色:7
外見_肌色:3
外見_目元:4
外見_瞳色:6
外見_口元:2
外見_唇色:3
外見_声質:3
外見_身長:1
外見_体格:2
外見_胸部:1
外見_臀部:1
外見_男秘部:1
外見_女秘部:1
愛撫:3
触手:3
複数:5
挿入:5
被挿:0
玩具:5
拘束:2
拡張:5
加虐:2
強要小排:2
強要大排:2
野外:4
眠姦:3
医療:2
主従:4
机下:4
逆転:5
フェチ:6
