﻿カラー:0xE27C94
名称:グラナーテ
性格:8
自称:われ
適性:1
外見_前髪:4
外見_髪長:4
外見_髪色:3
外見_肌色:1
外見_目元:3
外見_瞳色:1
外見_口元:3
外見_唇色:2
外見_声質:3
外見_身長:3
外見_体格:3
外見_胸部:1
外見_臀部:3
外見_男秘部:2
外見_女秘部:3
愛撫:4
触手:5
複数:5
挿入:3
被挿:0
玩具:5
拘束:3
拡張:5
加虐:4
強要小排:5
強要大排:1
野外:5
眠姦:3
医療:3
主従:3
机下:2
逆転:4
フェチ:4
