﻿カラー:0xF0CCDD
名称:デフォルト
性格:2
自称:私
適性:1
外見_前髪:3
外見_髪長:3
外見_髪色:1
外見_肌色:1
外見_目元:1
外見_瞳色:1
外見_口元:1
外見_唇色:1
外見_声質:1
外見_身長:2
外見_体格:2
外見_胸部:2
外見_臀部:2
外見_男秘部:2
外見_女秘部:2
愛撫:3
触手:3
複数:3
挿入:3
被挿:3
玩具:3
拘束:3
拡張:3
加虐:3
強要小排:3
強要大排:3
野外:3
眠姦:3
医療:3
主従:3
机下:3
逆転:3
フェチ:1
