﻿1,애무,			;2.11.0版から削除されました。
2,촉수,			;PREFERENCE_AIが使用されるようになります。
3,복수,			;〃
4,삽입,			;〃
5,피삽,			;〃
6,장난감,			;〃
7,구속,			;〃
8,확장,			;〃
9,가학,			;〃
10,강요소배,	;〃
11,강요대배,	;〃
12,야외,		;〃
13,면간,		;〃
14,의료,		;〃
15,주종,		;〃
16,책상밑,		;〃
17,역전,		;〃
18,페티시
19,컬러
20,자칭,		;2.1.0版から削除されました。SELFNAMEが使用されるようになります。
21,성별
22,성격
23,복장
24,탈의
25,동행
26,親
27,이번절정횟수Ｍ
28,이번절정횟수Ｂ
29,이번절정횟수Ａ
30,이번절정횟수Ｕ
31,이번절정횟수Ｃ
32,이번절정횟수Ｖ
33,이번절정횟수Ｐ
34,印象
35,懇意
36,恋慕
37,親愛
38,婚姻拒否
39,外見_髪長
40,外見_髪色
41,外見_肌色
42,外見_目元
43,外見_瞳色
44,外見_口元
45,外見_唇色
46,外見_声質
47,外見_身長
48,外見_体格
49,外見_胸部
50,外見_臀部
51,外見_男秘部
52,外見_女秘部
53,印
54,ソート表示中
55,適性
56,自宅庭の世話
57,自宅庭の現在座標
58,自宅庭の会話
59,対主人公現在位置
60,対主人公前回位置
61,絶頂Ｍチェック
62,絶頂Ｂチェック
63,絶頂Ａチェック
64,絶頂Ｕチェック
65,絶頂Ｃチェック
66,絶頂Ｖチェック
67,絶頂Ｐチェック
68,ターン絶頂Ｍチェック
69,ターン絶頂Ｂチェック
70,ターン絶頂Ａチェック
71,ターン絶頂Ｕチェック
72,ターン絶頂Ｃチェック
73,ターン絶頂Ｖチェック
74,ターン絶頂Ｐチェック
75,外見_前髪
76,外見_色変化_髪色
77,外見_色変化_瞳色
78,外見_色変化_肌色
79,ＮＰＣ삽입フラグ
80,ＮＰＣ삽입後射精回数
81,中出し対象
82,日記カウンタ
;83,現在地ID
;84,現在地座標
