﻿カラー:0xA0ADDA
名称:フォティア
性格:3
自称:僕
適性:2
外見_前髪:1
外見_髪長:1
外見_髪色:5
外見_肌色:2
外見_目元:1
外見_瞳色:6
外見_口元:1
外見_唇色:1
外見_声質:3
外見_身長:2
外見_体格:2
外見_胸部:2
外見_臀部:3
外見_男秘部:2
外見_女秘部:1
愛撫:4
触手:5
複数:3
挿入:4
被挿:0
玩具:4
拘束:5
拡張:4
加虐:3
強要小排:2
強要大排:5
野外:5
眠姦:2
医療:3
主従:1
机下:2
逆転:3
フェチ:3
