﻿カラー:0xD9E3C6
名称:フレッド
性格:12
自称:兄さん
適性:5
外見_前髪:1
外見_髪長:1
外見_髪色:5
外見_肌色:1
外見_目元:3
外見_瞳色:3
外見_口元:2
外見_唇色:3
外見_声質:1
外見_身長:2
外見_体格:2
外見_胸部:2
外見_臀部:2
外見_男秘部:2
外見_女秘部:1
愛撫:5
触手:5
複数:4
挿入:3
被挿:0
玩具:5
拘束:5
拡張:3
加虐:3
強要小排:2
強要大排:2
野外:4
眠姦:2
医療:3
主従:1
机下:5
逆転:3
フェチ:5
