﻿カラー:0xB7DBC3
名称:クレート
性格:4
自称:ぼく
適性:3
外見_前髪:2
外見_髪長:2
外見_髪色:1
外見_肌色:2
外見_目元:3
外見_瞳色:4
外見_口元:3
外見_唇色:2
外見_声質:2
外見_身長:3
外見_体格:3
外見_胸部:3
外見_臀部:3
外見_男秘部:3
外見_女秘部:1
愛撫:3
触手:5
複数:3
挿入:5
被挿:0
玩具:3
拘束:3
拡張:3
加虐:1
強要小排:2
強要大排:3
野外:4
眠姦:5
医療:3
主従:4
机下:3
逆転:3
フェチ:1
