﻿カラー:0xE8B69E
名称:リード
性格:8
自称:われ
適性:1
外見_前髪:1
外見_髪長:1
外見_髪色:7
外見_肌色:1
外見_目元:1
外見_瞳色:8
外見_口元:1
外見_唇色:1
外見_声質:3
外見_身長:2
外見_体格:2
外見_胸部:2
外見_臀部:2
外見_男秘部:3
外見_女秘部:1
愛撫:3
触手:4
複数:5
挿入:5
被挿:0
玩具:2
拘束:5
拡張:3
加虐:3
強要小排:2
強要大排:3
野外:5
眠姦:2
医療:3
主従:3
机下:3
逆転:4
フェチ:1
