﻿カラー:0xB3AFDD
名称:レオ
性格:5
自称:レオ
適性:4
外見_前髪:1
外見_髪長:1
外見_髪色:4
外見_肌色:3
外見_目元:5
外見_瞳色:7
外見_口元:1
外見_唇色:1
外見_声質:1
外見_身長:1
外見_体格:1
外見_胸部:2
外見_臀部:2
外見_男秘部:3
外見_女秘部:1
愛撫:4
触手:5
複数:4
挿入:3
被挿:0
玩具:5
拘束:3
拡張:4
加虐:2
強要小排:5
強要大排:3
野外:4
眠姦:4
医療:3
主従:5
机下:2
逆転:3
フェチ:4
