﻿カラー:0x9AB9DC
名称:レイモンド
性格:9
自称:オニイサン
適性:2
外見_前髪:2
外見_髪長:2
外見_髪色:6
外見_肌色:2
外見_目元:4
外見_瞳色:6
外見_口元:3
外見_唇色:3
外見_声質:2
外見_身長:1
外見_体格:3
外見_胸部:3
外見_臀部:3
外見_男秘部:2
外見_女秘部:1
愛撫:5
触手:3
複数:3
挿入:5
被挿:0
玩具:5
拘束:2
拡張:3
加虐:5
強要小排:2
強要大排:2
野外:4
眠姦:5
医療:2
主従:4
机下:3
逆転:1
フェチ:2
