﻿カラー:0x9BEFE0
名称:二コラ
性格:10
自称:オレ
適性:3
外見_前髪:1
外見_髪長:1
外見_髪色:3
外見_肌色:3
外見_目元:3
外見_瞳色:4
外見_口元:1
外見_唇色:2
外見_声質:1
外見_身長:3
外見_体格:3
外見_胸部:3
外見_臀部:3
外見_男秘部:2
外見_女秘部:1
愛撫:5
触手:5
複数:3
挿入:4
被挿:0
玩具:5
拘束:2
拡張:5
加虐:3
強要小排:2
強要大排:5
野外:3
眠姦:1
医療:5
主従:4
机下:1
逆転:4
フェチ:3
