﻿カラー:0xCAE1AC
名称:ヴュルガー
性格:6
自称:私
適性:5
外見_前髪:2
外見_髪長:2
外見_髪色:2
外見_肌色:1
外見_目元:3
外見_瞳色:3
外見_口元:1
外見_唇色:1
外見_声質:1
外見_身長:2
外見_体格:3
外見_胸部:3
外見_臀部:3
外見_男秘部:1
外見_女秘部:1
愛撫:5
触手:5
複数:3
挿入:4
被挿:0
玩具:5
拘束:3
拡張:2
加虐:5
強要小排:1
強要大排:2
野外:3
眠姦:4
医療:4
主従:4
机下:5
逆転:1
フェチ:2
