﻿カラー:0xA5E1D7
名称:ミゲル
性格:7
自称:俺
適性:6
外見_前髪:3
外見_髪長:3
外見_髪色:7
外見_肌色:3
外見_目元:4
外見_瞳色:8
外見_口元:2
外見_唇色:1
外見_声質:3
外見_身長:1
外見_体格:1
外見_胸部:1
外見_臀部:1
外見_男秘部:1
外見_女秘部:1
愛撫:5
触手:3
複数:3
挿入:3
被挿:0
玩具:3
拘束:4
拡張:1
加虐:4
強要小排:2
強要大排:1
野外:4
眠姦:4
医療:2
主従:3
机下:1
逆転:5
フェチ:7
