﻿;===================
;■era AWT PC 5 口上
;===================

;-------------------
;●製作者
;-------------------
;	ナマモノ

;-------------------
;●当口上のライセンスについて
;-------------------
;	READMEに記載しているため、そちらをご確認下さい
;

;-------------------
;●성격メモ
;-------------------
;	口調：基本～ですね。～しましょう。～して下さい。といった敬語や丁寧語。焦ったりして素になるとタメ口になる
;	悪癖：根が臆病で慎重なので人と壁を作りがち。嫌われるのが怖くて素直になれない
;	思考：内心はプライドが高くて意地っ張りの皮肉屋。理性的に振る舞おうとするあまり自縄自縛
;	目線：平時は上から目線だが許容値を超えると下から目線
;	自己への素直さ：自分にすら素直になれない
;	他者への素直さ：他人にはもっとだ
;	自己への関心：強い
;	他者への関心：関心があるのに気にしてない素振り
;	エロ：敬語、丁寧語混じり。許容値を超えると泣きが入ったりタメ口になったり
;	PCの忍耐、独占、増悪はシステムの都合で一律になりがち
