﻿カラー:0x8099DF
名称:セレス
性格:9
自称:おねーさん
適性:2
外見_前髪:3
外見_髪長:3
外見_髪色:7
外見_肌色:2
外見_目元:4
外見_瞳色:5
外見_口元:3
外見_唇色:2
外見_声質:1
外見_身長:1
外見_体格:2
外見_胸部:1
外見_臀部:2
外見_男秘部:2
外見_女秘部:2
愛撫:5
触手:3
複数:5
挿入:3
被挿:5
玩具:5
拘束:4
拡張:2
加虐:4
強要小排:4
強要大排:2
野外:4
眠姦:5
医療:4
主従:3
机下:2
逆転:4
フェチ:7
