﻿カラー:0xADA9DE
名称:ベル
性格:11
自称:わたし
適性:4
外見_前髪:2
外見_髪長:2
外見_髪色:4
外見_肌色:1
外見_目元:1
外見_瞳色:2
外見_口元:3
外見_唇色:3
外見_声質:2
外見_身長:2
外見_体格:3
外見_胸部:3
外見_臀部:1
外見_男秘部:3
外見_女秘部:3
愛撫:4
触手:5
複数:3
挿入:3
被挿:5
玩具:4
拘束:3
拡張:3
加虐:1
強要小排:5
強要大排:5
野外:3
眠姦:3
医療:5
主従:5
机下:3
逆転:3
フェチ:4
