﻿カラー:0xAEC7E8
名称:カエルラ
性格:3
自称:私
適性:2
外見_前髪:3
外見_髪長:3
外見_髪色:5
外見_肌色:1
外見_目元:4
外見_瞳色:6
外見_口元:3
外見_唇色:1
外見_声質:1
外見_身長:2
外見_体格:2
外見_胸部:2
外見_臀部:2
外見_男秘部:2
外見_女秘部:2
愛撫:3
触手:5
複数:3
挿入:5
被挿:3
玩具:4
拘束:4
拡張:4
加虐:3
強要小排:5
強要大排:5
野外:4
眠姦:5
医療:3
主従:3
机下:4
逆転:2
フェチ:3
