﻿;===================
;■era AWT PC 5（生意気敬語） 口上
;===================

;-------------------
;●この口上について
;-------------------
;	eraAWT_ver1.5.2用のPCが生意気な敬語口調で話す様になる口上です。

	育ちが良くての言葉遣いではなく、自己防衛のための敬語・丁寧語なので、
	ちょくちょく素の生意気さが出たり口調が乱れたりします。
	
	基本賢しら口をきいているので、苦手な方はご注意下さい。

	面倒くさい性格をした利口ぶった子が、焦ったり許容値を越えたりデレたりすると
	素を出してくれるのが好きだという、作者の趣味が詰まった品になります。
	
	また、地の文などはテンプレートをそのまま使っていたり少しだけ改変した程度だったり、
	一部の喘ぎなどもテンプレートのままだったり、era AWTの他口上のものをそのまま使用させて頂いていたりします。
	
	（他口上からの借用部分は、バードキスなどのキス関係の喘ぎや、眠姦時の喘ぎなどです。作者の喘ぎ声のバリエーションが尽きた）

-----------------------------
●2019/01/18　修正
-----------------------------
	PC反応があんまりにもワンパターンだったので、少しだけパターンを増やしています

-----------------------------
●2018/08/13　修正
-----------------------------
	PC反応に「被○○」系がない為、口上が表示されないバグの修正。
	また、それだけではあんまりなため、少しだけPC反応に追記と、「被○○」時に男PC喘ぎすぎ状態だったため修正を行っています。
	ゆるゆるバグチェック能力で申し訳ない……

;-------------------
;●当口上のライセンスについて
;-------------------
;	・当口上ファイルの改変、再配布を許可
;	（No.76様以外が再配布をされる場合、自作品と誤解される形でUPするのはお止め下さい）
;	・商用利用不可
;	・その他のライセンスにつきましては、本体（era AWT）に準拠します
;
;-------------------
;●製作者
;-------------------
;	ナマモノ

