﻿컬러:0xF0CCDD
名称:디폴트
성격:2
자칭:나
適性:1
外見_前髪:3
外見_髪長:3
外見_髪色:1
外見_肌色:1
外見_目元:1
外見_瞳色:1
外見_口元:1
外見_唇色:1
外見_声質:1
外見_身長:2
外見_体格:2
外見_胸部:2
外見_臀部:2
外見_男秘部:2
外見_女秘部:2
애무:3
촉수:3
복수:3
삽입:3
봉사:3
피삽:3
장난감:3
구속:3
확장:3
가학:3
강요소배:3
강요대배:3
야외:3
면간:3
의료:3
주종:3
책상밑:3
역전:3
페티시:1
