キャラ紹介のコピペ元にどうぞ

--------------------
●赤のプリム
--------------------
【作者　】No.76
【紹介　】比較的ノーマルな男あなた向けキャラ
【性格　】元気で甘えたがり
【発言色】薄ピンク
【髪色　】桃花
【髪型　】ツインテール
【瞳色　】赤
【目元　】ネコ目
【肌色　】象牙
【適性　】赤触手
【身長　】標準
【体格　】華奢
【胸部　】巨乳
【臀部　】小尻
【女生殖】純潔
【男生殖】純潔
【フェチ】Ｐ
【大好き】愛撫・被挿入・玩具／野外・睡姦・机下・逆転
【好き　】
【普通　】触手・複数・挿入／拘束・主従
【嫌い　】
【大嫌い】
【ＮＧ　】拡張・加虐・小排泄強要・大排泄強要／医療

