﻿カラー:0xDCD1D6
名称:プリム
性格:2
自称:わたし
適性:1
外見_前髪:1
外見_髪長:8
外見_髪色:19
外見_肌色:4
外見_目元:2
外見_瞳色:8
外見_口元:2
外見_唇色:3
外見_声質:2
外見_身長:2
外見_体格:3
外見_胸部:1
外見_臀部:3
外見_男秘部:3
外見_女秘部:3
愛撫:5
触手:3
複数:3
挿入:3
被挿:5
玩具:5
拘束:3
拡張:0
加虐:0
強要小排:0
強要大排:0
野外:5
眠姦:5
医療:0
主従:3
机下:5
逆転:5
フェチ:7
